[
  "tcp://185.174.138.19:80",
  "tcp://45.8.211.90:80",
  "tcp://31.12.75.183:80",
  "tcp://185.221.160.60:80",
  "tcp://89.109.253.119:80",
  "tcp://185.178.47.135:80",
  "tcp://82.146.37.145:80",
  "tcp://94.243.9.250:80",
  "tcp://62.33.207.201:80",
  "tcp://185.137.232.95:80",
  "tcp://2.92.49.249:80",
  "tcp://45.144.30.54:80",
  "tcp://85.92.118.232:80",
  "tcp://85.143.70.165:80",
  "tcp://78.111.84.161:80"
]
